[gd_scene load_steps=3 format=2]

[ext_resource path="res://Scenes/SceneTransition.gd" type="Script" id=1]

[sub_resource type="Animation" id=1]
resource_name = "Fade"
length = 0.5
tracks/0/type = "value"
tracks/0/path = NodePath(".:color")
tracks/0/interp = 1
tracks/0/loop_wrap = true
tracks/0/imported = false
tracks/0/enabled = true
tracks/0/keys = {
"times": PoolRealArray( 0, 0.5 ),
"transitions": PoolRealArray( 1, 1 ),
"update": 0,
"values": [ Color( 0, 0, 0, 0 ), Color( 0, 0, 0, 1 ) ]
}

[node name="SceneTransition" type="ColorRect"]
anchor_right = 1.0
anchor_bottom = 1.0
mouse_filter = 2
color = Color( 0, 0, 0, 0 )
script = ExtResource( 1 )
__meta__ = {
"_edit_use_anchors_": false
}

[node name="AnimationPlayer" type="AnimationPlayer" parent="."]
anims/Fade = SubResource( 1 )
