[gd_scene load_steps=3 format=2]

[ext_resource path="res://Scenes/Ticket.gd" type="Script" id=1]
[ext_resource path="res://Assets/01- Arte Fondos/01- Background Mostrador/09- Ticket 01 Rabas Limon.png" type="Texture" id=2]

[node name="rabas_limon" type="TextureRect"]
texture = ExtResource( 2 )
script = ExtResource( 1 )
__meta__ = {
"_edit_use_anchors_": false
}
comida = "rabas"
guarnicion = "limon"
