[gd_scene load_steps=9 format=2]

[ext_resource path="res://Assets/02- Background Cocina/03- Platos/03- Langostinos.png" type="Texture" id=1]
[ext_resource path="res://Assets/02- Background Cocina/03- Platos/05- Papas.png" type="Texture" id=2]
[ext_resource path="res://Assets/02- Background Cocina/03- Platos/04- Albondigas.png" type="Texture" id=3]
[ext_resource path="res://Assets/02- Background Cocina/03- Platos/01- Plato Limon.png" type="Texture" id=4]
[ext_resource path="res://Assets/02- Background Cocina/03- Platos/06- Rabas.png" type="Texture" id=5]
[ext_resource path="res://componentes/platos/platoLimon.gd" type="Script" id=6]

[sub_resource type="SpriteFrames" id=1]
animations = [ {
"frames": [  ],
"loop": true,
"name": "default",
"speed": 5.0
}, {
"frames": [ ExtResource( 1 ) ],
"loop": false,
"name": "langostinos",
"speed": 5.0
}, {
"frames": [ ExtResource( 5 ) ],
"loop": false,
"name": "rabas",
"speed": 5.0
}, {
"frames": [ ExtResource( 2 ) ],
"loop": false,
"name": "papas",
"speed": 5.0
}, {
"frames": [ ExtResource( 3 ) ],
"loop": true,
"name": "pescado",
"speed": 5.0
} ]

[sub_resource type="CircleShape2D" id=2]
radius = 130.579

[node name="platoLimon" type="Sprite"]
texture = ExtResource( 4 )
script = ExtResource( 6 )

[node name="anim" type="AnimatedSprite" parent="."]
frames = SubResource( 1 )

[node name="Area2D" type="Area2D" parent="."]

[node name="CollisionShape2D" type="CollisionShape2D" parent="Area2D"]
position = Vector2( -6.34961, 30.1606 )
shape = SubResource( 2 )
